<svg width="1440" height="1436" viewBox="0 0 1440 1436" fill="none" xmlns="http://www.w3.org/2000/svg">
<path fill-rule="evenodd" clip-rule="evenodd" d="M1081.63 714.364C1131.7 673.562 1175.76 624.678 1238.35 608.697C1304.54 591.797 1372.37 603.614 1437.78 623.427C1515.19 646.876 1597.66 669.211 1647.77 732.72C1702.9 802.61 1745.45 897.06 1721.16 982.637C1697.27 1066.8 1592.53 1091.62 1528.85 1151.59C1469.06 1207.89 1439.36 1301.34 1360.03 1322.69C1278.98 1344.5 1185.24 1316.47 1122.13 1261.04C1063.96 1209.94 1081.33 1116.63 1046.63 1047.42C1012.96 980.274 915.793 939.867 923.642 865.198C931.446 790.944 1023.78 761.519 1081.63 714.364Z" fill="#506669"/>
<path fill-rule="evenodd" clip-rule="evenodd" d="M-316.21 805.996C-333.838 743.866 -361.263 684.039 -351.138 620.24C-340.432 552.773 -302.706 495.171 -258.6 442.967C-206.403 381.186 -153.217 314.308 -75.0549 293.468C10.9597 270.535 114.54 268.884 183.489 325.097C251.295 380.378 232.594 486.381 262.42 568.606C290.427 645.815 364.462 710.105 352.633 791.399C340.547 874.462 277.667 949.422 201.772 985.404C131.806 1018.57 53.0164 965.651 -24.2799 970.094C-99.2704 974.406 -174.867 1047.61 -240.316 1010.82C-305.401 974.235 -295.836 877.8 -316.21 805.996Z" fill="#8D9D92"/>
<path fill-rule="evenodd" clip-rule="evenodd" d="M708.744 28.0396C772.916 35.3125 838.675 32.6483 893.858 66.2309C952.212 101.744 991.184 158.51 1022.74 219.131C1060.09 290.871 1101.77 365.461 1091.38 445.684C1079.95 533.967 1042.17 630.422 963.99 672.875C887.109 714.624 796.137 657.088 708.744 653.473C626.683 650.078 539.103 694.171 468.382 652.371C396.123 609.662 350.639 523.036 346.156 439.163C342.024 361.842 420.893 309.036 446.121 235.838C470.596 164.823 431.564 67.0977 490.442 20.5106C548.993 -25.8174 634.581 19.6345 708.744 28.0396Z" fill="#233F42"/>
</svg>
