<svg width="43" height="26" viewBox="0 0 43 26" fill="none" xmlns="http://www.w3.org/2000/svg">
<path d="M39.7796 0.0213623H3.22038C1.44176 0.0213623 0 1.34976 0 2.98853V8.67379H43V2.98853C43 1.34976 41.5582 0.0213623 39.7796 0.0213623Z" fill="#464655"/>
<path d="M0 23.0114C0 24.6501 1.44176 25.9786 3.22038 25.9786H39.7796C41.5582 25.9786 43 24.6502 43 23.0114V17.3262H0V23.0114Z" fill="#FFE15A"/>
<path d="M43 8.67358H0V17.3255H43V8.67358Z" fill="#FF4B55"/>
</svg>
