<svg width="42" height="26" viewBox="0 0 42 26" fill="none" xmlns="http://www.w3.org/2000/svg">
<path d="M38.8545 0.0212402H3.14549C1.40823 0.0212402 0 1.34964 0 2.98841V23.0115C0 24.6502 1.40823 25.9787 3.14549 25.9787H38.8545C40.5917 25.9787 42 24.6503 42 23.0115V2.98841C42 1.34964 40.5918 0.0212402 38.8545 0.0212402Z" fill="#FF4B55"/>
<path d="M20.7928 10.6592L21.9278 12.0599L23.7002 11.5003C23.7993 11.4689 23.8836 11.5747 23.8243 11.6558L22.7629 13.1069L23.8749 14.5241C23.937 14.6033 23.8565 14.7116 23.7564 14.6834L21.9653 14.1796L20.8802 15.615C20.8196 15.6953 20.6854 15.6565 20.6828 15.558L20.6373 13.7955L18.8548 13.2655C18.7551 13.2359 18.7527 13.1036 18.8513 13.0709L20.6143 12.4854L20.5977 10.7225C20.5966 10.6239 20.7294 10.581 20.7928 10.6592Z" fill="#F5F5F5"/>
<path d="M14.5159 18.4679C11.3171 18.4679 8.72232 16.0201 8.72232 12.9999C8.72232 9.98529 11.3172 7.532 14.5159 7.532C15.7061 7.532 16.8035 7.87728 17.7183 8.46166C17.8583 8.55111 18.0182 8.37754 17.901 8.26256C16.5341 6.92193 14.5994 6.10409 12.4543 6.17312C8.76892 6.29174 5.71801 9.079 5.4825 12.5503C5.21278 16.5264 8.5503 19.8308 12.7057 19.8308C14.7526 19.8308 16.5922 19.0236 17.9059 17.733C18.022 17.6189 17.8618 17.448 17.723 17.5367C16.8074 18.1223 15.7081 18.4679 14.5159 18.4679Z" fill="#F5F5F5"/>
</svg>
