<svg width="41" height="26" viewBox="0 0 41 26" fill="none" xmlns="http://www.w3.org/2000/svg">
<path d="M0.934326 25.1418C1.48695 25.6594 2.2396 25.9785 3.06993 25.9786H12.0172L40.0656 0.85816C39.5129 0.340481 38.7599 0.0213623 37.9294 0.0213623H28.9827L0.934326 25.1418Z" fill="#FFE15A"/>
<path d="M0.934352 25.1418L28.9828 0.0213623H3.0706C1.3747 0.0213623 0 1.34976 0 2.98853V23.0115C0 23.8477 0.35851 24.6025 0.934352 25.1418Z" fill="#73AF00"/>
<path d="M40.0656 0.858154L12.0172 25.9786H37.93C39.6256 25.9783 41 24.65 41 23.0115V2.98853C41 2.15235 40.6415 1.3975 40.0656 0.858154Z" fill="#FF4B55"/>
</svg>
