<svg width="42" height="26" viewBox="0 0 42 26" fill="none" xmlns="http://www.w3.org/2000/svg">
<path d="M38.8545 25.9786H3.14549C1.40823 25.9786 0 24.6502 0 23.0115V2.98853C0 1.34984 1.40823 0.0213623 3.14549 0.0213623H38.8545C40.5917 0.0213623 42 1.34976 42 2.98853V23.0116C42 24.6502 40.5918 25.9786 38.8545 25.9786Z" fill="#82AFFF"/>
<path d="M39.1696 0.0362549L0 19.1478V20.514L40.7585 0.627058C40.3084 0.30376 39.7635 0.0919692 39.1696 0.0362549Z" fill="#FFE15A"/>
<path d="M2.83038 25.9639L42 6.85237V5.48621L1.24152 25.3731C1.69154 25.6964 2.23647 25.9082 2.83038 25.9639Z" fill="#FFE15A"/>
<path d="M40.7585 0.627075L0 20.5139V23.0114C0 23.9749 0.487184 24.8308 1.24154 25.3729L42 5.48598V2.98843C42 2.02496 41.5128 1.16905 40.7585 0.627075Z" fill="#FF4B55"/>
<path d="M7.59762 2.70662L8.64089 5.65754L11.9385 5.68161C12.1229 5.683 12.1993 5.90493 12.051 6.00831L9.39821 7.85624L10.3929 10.8221C10.4485 10.9879 10.2484 11.1251 10.0983 11.024L7.41551 9.21505L4.73268 11.024C4.58273 11.1252 4.38249 10.9879 4.4381 10.8221L5.43282 7.85624L2.78001 6.00831C2.63161 5.905 2.70815 5.683 2.89255 5.68161L6.19013 5.65754L7.2334 2.70662C7.29189 2.54164 7.53921 2.54164 7.59762 2.70662Z" fill="#FFE15A"/>
</svg>
